{
  "development": {
    "username": "postgres",
    "password":"postgres",
    "database": "bookstore_file",
    "host": "127.0.0.1",
    "dialect": "postgres"
  },
  "test": {
    "username": "postgres",
    "password":"postgress",
    "database": "database_test",
    "host": "127.0.0.1",
    "dialect": "postgres"
  },
  "production": {
    "username": "postgres",
    "password":"postgress",
    "database": "database_production",
    "host": "127.0.0.1",
    "dialect": "postgres"
  }
}
