[
  {
    "id": 1,
    "task": "reading book",
    "status": true,
    "tag": [],
    "created_at": "2020-04-07T14:31:44.338Z",
    "completed_at": "2020-04-07T14:31:44.338Z"
  },
  {
    "id": 2,
    "task": "learning france",
    "status": true,
    "tag": [],
    "created_at": "2020-04-07T14:31:44.338Z",
    "completed_at": "2020-09-18T15:17:25.747Z"
  }
]